PathResolver             WARNING Locating dev file dev/PMGTools/PMGxsecDB_mc16.txt. Do not let this propagate to a release
ToolSvc.JVTEfficiencyToolWARNING Supplied SF file JetJvtEfficiency/Moriond2018/JvtSFFile_EMPFlowJets.root doesn't seem to contain SFs for NNJvt, falling back to dummy SFs ...
    NNJVT.Network.graph.Offline.Nonprompt_All_MaxWeight.json



 Reading JVT likelihood histogram from:


    NNJVT.Cuts.FixedEffPt.Offline.Nonprompt_All_MaxW.json



ToolSvc.JVTEfficiencyT...WARNING No JetContainer set. This behaviour is deprecated
ToolSvc.JVTEfficiencyT...WARNING No JetContainer set. This behaviour is deprecated
ToolSvc.FJVTEfficiency...WARNING No JetContainer set. This behaviour is deprecated
ToolSvc.FJVTEfficiency...WARNING No JetContainer set. This behaviour is deprecated
SUSYObjDef_xAOD          WARNING (AsgElectronEfficiencyCorrectionTool_trig_mixLep_*) Your selected electron Iso WP (Loose_VarRad) does not have trigger SFs defined. Falling back to FCLoose for SF calculations
SUSYObjDef_xAOD          WARNING (AsgElectronEfficiencyCorrectionTool_trig_mixLep_*) Your selected electron Iso WP (Loose_VarRad) does not have trigger SFs defined. Falling back to FCLoose for SF calculations
SUSYObjDef_xAOD          WARNING (AsgElectronEfficiencyCorrectionTool_trig_mixLep_*) Your selected electron Iso WP (Loose_VarRad) does not have trigger SFs defined. Falling back to FCLoose for SF calculations
SUSYObjDef_xAOD          WARNING (AsgElectronEfficiencyCorrectionTool_trig_mixLep_*) Your selected electron Iso WP (Loose_VarRad) does not have trigger SFs defined. Falling back to FCLoose for SF calculations
SUSYObjDef_xAOD          WARNING (AsgElectronEfficiencyCorrectionTool_trig_mixLep_*) Your selected electron Iso WP (Loose_VarRad) does not have trigger SFs defined. Falling back to FCLoose for SF calculations
SUSYObjDef_xAOD          WARNING (AsgElectronEfficiencyCorrectionTool_trig_mixLep_*) Your selected electron Iso WP (Loose_VarRad) does not have trigger SFs defined. Falling back to FCLoose for SF calculations
SUSYObjDef_xAOD          WARNING *** THE ELECTRON CHARGE FLIP SF ARE CURRENTY NOT SUPPORTED ***
SUSYObjDef_xAOD          WARNING No Photon trigger SF available for FixedCutTight, using TightCaloOnly instead... Use at your own risk
ToolSvc.TauEffTool_MediumWARNING 2022-prerec tag are pre-recommendations and still under development.
ToolSvc.TauTrigEffTool...WARNING 2022-prerec tag are pre-recommendations and still under development.
ToolSvc.TauTrigEffTool...WARNING 2022-prerec tag are pre-recommendations and still under development.
ToolSvc.TauTrigEffTool...WARNING 2022-prerec tag are pre-recommendations and still under development.
ToolSvc.TauTrigEffTool...WARNING 2022-prerec tag are pre-recommendations and still under development.
ToolSvc.TauTrigEffTool...WARNING 2022-prerec tag are pre-recommendations and still under development.
ToolSvc.TauTrigEffTool...WARNING 2022-prerec tag are pre-recommendations and still under development.
ToolSvc.TauTrigEffTool...WARNING 2022-prerec tag are pre-recommendations and still under development.
ToolSvc.TauTrigEffTool...WARNING 2022-prerec tag are pre-recommendations and still under development.
ToolSvc.TauTrigEffTool...WARNING 2022-prerec tag are pre-recommendations and still under development.
ToolSvc.TauTrigEffTool...WARNING 2022-prerec tag are pre-recommendations and still under development.
ToolSvc.TauTrigEffTool...WARNING 2022-prerec tag are pre-recommendations and still under development.
ToolSvc.TauTrigEffTool...WARNING 2022-prerec tag are pre-recommendations and still under development.
ToolSvc.TauTrigEffTool...WARNING 2022-prerec tag are pre-recommendations and still under development.
ToolSvc.TauTrigEffTool...WARNING 2022-prerec tag are pre-recommendations and still under development.
ToolSvc.TauTrigEffTool...WARNING 2022-prerec tag are pre-recommendations and still under development.
ToolSvc.TauTrigEffTool...WARNING 2022-prerec tag are pre-recommendations and still under development.
ToolSvc.TauTrigEffTool...WARNING 2022-prerec tag are pre-recommendations and still under development.
ToolSvc.TauTrigEffTool...WARNING 2022-prerec tag are pre-recommendations and still under development.
ToolSvc.TauTrigEffTool...WARNING 2022-prerec tag are pre-recommendations and still under development.
ToolSvc.TauTrigEffTool...WARNING 2022-prerec tag are pre-recommendations and still under development.
 CDI file build number: Custom
number of taggers: 6
DL1dv00, DL1dv01, DL1r, GN120220509, GN2v00LegacyWP, GN2v00NewAliasWP, 
number of jet collections: 2
AntiKt4EMPFlowJets, AntiKtVR30Rmax4Rmin02TrackJets, 
number of working points: 5
Continuous, FixedCutBEff_60, FixedCutBEff_70, FixedCutBEff_77, FixedCutBEff_85, 
=== CalibrationDataInterfaceROOT::CalibrationDataInterfaceROOT ===
 taggerName           : DL1dv01
 Systematic strategy : SFGlobalEigen

 CDI file build number: Custom

======= end of CalibrationDataInterfaceROOT instantiation ========
CalibrationDataInterfaceROOT->retrieveCalibrationIndex :  container name is 410470_Eff
CalibrationDataInterface: retrieved container DL1dv01/AntiKt4EMPFlowJets/FixedCutBEff_85/Light/410470_Eff (with comment: 'efficiencies from sample PowhegPythia8' and hadronisation setting 'Pythia8EvtGen')
CalibrationDataInterface: retrieved container DL1dv01/AntiKt4EMPFlowJets/FixedCutBEff_85/Light/default_SF (with comment: 'negative_tag_Zjet+extrap[Run2MCcalib]' and hadronisation setting 'Pythia8EvtGen')
CalibrationDataInterfaceROOT->retrieveCalibrationIndex : container DL1dv01/AntiKt4EMPFlowJets/FixedCutBEff_85/Light/default_SF already cached! 
CalibrationDataInterfaceROOT->retrieveCalibrationIndex :  container name is 410470_Eff
CalibrationDataInterface: retrieved container DL1dv01/AntiKt4EMPFlowJets/FixedCutBEff_85/C/410470_Eff (with comment: 'efficiencies from sample PowhegPythia8' and hadronisation setting 'Pythia8EvtGen')
CalibrationDataInterface: retrieved container DL1dv01/AntiKt4EMPFlowJets/FixedCutBEff_85/C/default_SF (with comment: 'ttbarC+extrap[Run2MCcalib_ttC]' and hadronisation setting 'Pythia8EvtGen')
CalibrationDataInterfaceROOT->retrieveCalibrationIndex : container DL1dv01/AntiKt4EMPFlowJets/FixedCutBEff_85/C/default_SF already cached! 
CalibrationDataInterfaceROOT->retrieveCalibrationIndex :  container name is 410470_Eff
CalibrationDataInterface: retrieved container DL1dv01/AntiKt4EMPFlowJets/FixedCutBEff_85/B/410470_Eff (with comment: 'efficiencies from sample PowhegPythia8' and hadronisation setting 'Pythia8EvtGen')
CalibrationDataInterface: retrieved container DL1dv01/AntiKt4EMPFlowJets/FixedCutBEff_85/B/default_SF (with comment: 'ttbar_PDF+extrap[Run2MCcalib]' and hadronisation setting 'Pythia8EvtGen')
CalibrationDataInterfaceROOT->retrieveCalibrationIndex : container DL1dv01/AntiKt4EMPFlowJets/FixedCutBEff_85/B/default_SF already cached! 
CalibrationDataInterfaceROOT->retrieveCalibrationIndex :  container name is 410470_Eff
CalibrationDataInterface: retrieved container DL1dv01/AntiKt4EMPFlowJets/FixedCutBEff_85/T/410470_Eff (with comment: 'efficiencies from sample PowhegPythia8' and hadronisation setting 'Pythia8EvtGen')
CalibrationDataInterface: retrieved container DL1dv01/AntiKt4EMPFlowJets/FixedCutBEff_85/T/default_SF (with comment: 'ttbarC+addSys[newsys]+extrap[Run2MCcalib_ttC]' and hadronisation setting 'Pythia8EvtGen')
CalibrationDataInterfaceROOT->retrieveCalibrationIndex : container DL1dv01/AntiKt4EMPFlowJets/FixedCutBEff_85/T/default_SF already cached! 
    NNJVT.Network.graph.Offline.Nonprompt_All_MaxWeight.json



 Reading JVT likelihood histogram from:


    NNJVT.Cuts.FixedEffPt.Offline.Nonprompt_All_MaxW.json



ToolSvc.METMaker_ST_Ti...WARNING No JetContainer set. This behaviour is deprecated
ToolSvc.METMaker_ST_Ti...WARNING No JetContainer set. This behaviour is deprecated
ToolSvc.metSignificanc...WARNING Setup the muon calibration tool with calib mode 1. Please consider to configure the tool via the 'MuonCalibTool' property.
ToolSvc.TauEffTool_MediumWARNING TauEfficiency callibrations from 2022-prerec are not recommended for Run2 MC. Will only print this warning once.
ToolSvc.TauTrigEffTool...WARNING TauEfficiency callibrations from 2022-prerec are not recommended for Run2 MC. Will only print this warning once.
ToolSvc.TauTrigEffTool...WARNING TauEfficiency callibrations from 2022-prerec are not recommended for Run2 MC. Will only print this warning once.
ToolSvc.TauTrigEffTool...WARNING TauEfficiency callibrations from 2022-prerec are not recommended for Run2 MC. Will only print this warning once.
ToolSvc.TauTrigEffTool...WARNING TauEfficiency callibrations from 2022-prerec are not recommended for Run2 MC. Will only print this warning once.
ToolSvc.TauTrigEffTool...WARNING TauEfficiency callibrations from 2022-prerec are not recommended for Run2 MC. Will only print this warning once.
ToolSvc.TauTrigEffTool...WARNING TauEfficiency callibrations from 2022-prerec are not recommended for Run2 MC. Will only print this warning once.
ToolSvc.TauTrigEffTool...WARNING TauEfficiency callibrations from 2022-prerec are not recommended for Run2 MC. Will only print this warning once.
ToolSvc.TauTrigEffTool...WARNING TauEfficiency callibrations from 2022-prerec are not recommended for Run2 MC. Will only print this warning once.
ToolSvc.TauTrigEffTool...WARNING TauEfficiency callibrations from 2022-prerec are not recommended for Run2 MC. Will only print this warning once.
ToolSvc.TauTrigEffTool...WARNING TauEfficiency callibrations from 2022-prerec are not recommended for Run2 MC. Will only print this warning once.
ToolSvc.TauTrigEffTool...WARNING TauEfficiency callibrations from 2022-prerec are not recommended for Run2 MC. Will only print this warning once.
ToolSvc.TauTrigEffTool...WARNING TauEfficiency callibrations from 2022-prerec are not recommended for Run2 MC. Will only print this warning once.
ToolSvc.TauTrigEffTool...WARNING TauEfficiency callibrations from 2022-prerec are not recommended for Run2 MC. Will only print this warning once.
ToolSvc.TauTrigEffTool...WARNING TauEfficiency callibrations from 2022-prerec are not recommended for Run2 MC. Will only print this warning once.
ToolSvc.TauTrigEffTool...WARNING TauEfficiency callibrations from 2022-prerec are not recommended for Run2 MC. Will only print this warning once.
ToolSvc.TauTrigEffTool...WARNING TauEfficiency callibrations from 2022-prerec are not recommended for Run2 MC. Will only print this warning once.
ToolSvc.TauTrigEffTool...WARNING TauEfficiency callibrations from 2022-prerec are not recommended for Run2 MC. Will only print this warning once.
ToolSvc.TauTrigEffTool...WARNING TauEfficiency callibrations from 2022-prerec are not recommended for Run2 MC. Will only print this warning once.
ToolSvc.TauTrigEffTool...WARNING TauEfficiency callibrations from 2022-prerec are not recommended for Run2 MC. Will only print this warning once.
ToolSvc.TauTrigEffTool...WARNING TauEfficiency callibrations from 2022-prerec are not recommended for Run2 MC. Will only print this warning once.
SUSYObjDef_xAOD          WARNING TruthBSM is empty. Skipping FindSusyHP.
SUSYObjDef_xAOD          WARNING TruthBSM is empty. Skipping FindSusyHP.
SUSYObjDef_xAOD          WARNING TruthBSM is empty. Skipping FindSusyHP.
SUSYObjDef_xAOD          WARNING TruthBSM is empty. Skipping FindSusyHP.
SUSYObjDef_xAOD          WARNING TruthBSM is empty. Skipping FindSusyHP.
ToolSvc.TopTagger        WARNING One (or more) tagger input variable has an out-of-range value, setting score to -666
Info in <SUSYToolsTester>: Time per event:          (CPU / WALL)
		CalibrationDataInterfaceROOT object out-of-bounds summary:
			No issues found
